<?xml version="1.0" encoding="UTF-8"?>
<svg width="1928px" height="88px" viewBox="0 0 1928 88" version="1.1" xmlns="http://www.w3.org/2000/svg" xmlns:xlink="http://www.w3.org/1999/xlink">
    <!-- Generator: Sketch 53.2 (72643) - https://sketchapp.com -->
    <title>bg_2nd_titlebar</title>
    <desc>Created with Sketch.</desc>
    <defs>
        <rect id="path-1" x="260" y="1160" width="1920" height="80"></rect>
        <filter x="-0.4%" y="-6.2%" width="100.7%" height="117.5%" filterUnits="objectBoundingBox" id="filter-2">
            <feOffset dx="0" dy="2" in="SourceAlpha" result="shadowOffsetOuter1"></feOffset>
            <feGaussianBlur stdDeviation="2" in="shadowOffsetOuter1" result="shadowBlurOuter1"></feGaussianBlur>
            <feColorMatrix values="0 0 0 0 0   0 0 0 0 0   0 0 0 0 0  0 0 0 0.5 0" type="matrix" in="shadowBlurOuter1"></feColorMatrix>
        </filter>
    </defs>
    <g id="spec" stroke="none" stroke-width="1" fill="none" fill-rule="evenodd">
        <g id="Artboard" transform="translate(-256.000000, -1158.000000)" fill-rule="nonzero">
            <g id="bg_2nd_titlebar">
                <use fill="black" fill-opacity="1" filter="url(#filter-2)" xlink:href="#path-1"></use>
                <use fill="#1E1E23" xlink:href="#path-1"></use>
            </g>
        </g>
    </g>
</svg>