<?xml version="1.0" encoding="UTF-8"?>
<svg width="48px" height="48px" viewBox="0 0 48 48" version="1.1" xmlns="http://www.w3.org/2000/svg" xmlns:xlink="http://www.w3.org/1999/xlink">
    <!-- Generator: Sketch 53.2 (72643) - https://sketchapp.com -->
    <title>btn_home_pushed</title>
    <desc>Created with Sketch.</desc>
    <g id="spec" stroke="none" stroke-width="1" fill="none" fill-rule="evenodd">
        <g id="Artboard" transform="translate(-597.000000, -134.000000)" fill="#FFFFFF">
            <g id="btn_home_pushed" transform="translate(597.000000, 134.000000)">
                <rect id="Rectangle-Copy-47" fill-rule="nonzero" opacity="0.1" x="0" y="0" width="48" height="48" rx="2"></rect>
                <polygon id="Page-1-Copy-14" points="24 12 12 23.9978478 12 36 20.6666667 36 20.6666667 28.0059443 27.3333333 28.0059443 27.3333333 36 36 36 36 23.9978478"></polygon>
            </g>
        </g>
    </g>
</svg>